code/iverilog.vcd
$date
	Fri Mar 24 01:27:31 2023
$end
$version
	Icarus Verilog
$end
$timescale
	1ps
$end
$scope module dff $end
$var wire 1 ! clk_i $end
$var wire 1 " d_i $end
$var wire 1 # q_o $end
$var wire 1 $ reset_i $end
$var reg 1 % q_r $end
$upscope $end
$scope module inv $end
$var wire 1 & a_i $end
$var wire 1 ' b_o $end
$upscope $end
$scope module testbench $end
$var wire 1 ( valid_i $end
$var wire 1 ) reset_i $end
$var wire 1 * enable_i $end
$var wire 8 + data_i [7:0] $end
$var wire 1 , clk_i $end
$scope module Clock $end
$var reg 1 , clk_o $end
$upscope $end
$scope module lcd_ctrl $end
$var wire 1 - button_next_i $end
$var wire 1 . button_ok_i $end
$var wire 1 / button_prev_i $end
$var wire 1 , fpga_clk_i $end
$var wire 1 0 fpga_reset_i $end
$var wire 8 1 lcd_data_o [7:0] $end
$var wire 1 * lcd_enable_o $end
$var wire 1 ) lcd_reset_o $end
$var wire 1 ( valid_o $end
$var reg 8 2 lcd_data [7:0] $end
$var reg 1 3 lcd_enable $end
$var reg 1 4 lcd_reset $end
$var integer 32 5 step [31:0] $end
$upscope $end
$upscope $end
$enddefinitions $end
#0
$dumpvars
b0 5
x4
x3
bx 2
bx 1
10
0/
0.
0-
0,
bx +
x*
x)
z(
z'
z&
x%
z$
x#
z"
z!
$end
#5000
b1 5
1*
13
0)
04
b110000 +
b110000 1
b110000 2
1,
#10000
0,
#15000
b10 5
1,
#20000
0,
#25000
b11 5
0*
03
1,
#30000
0,
#35000
1*
13
b11100 +
b11100 1
b11100 2
b100 5
1,
#40000
0,
#45000
b101 5
0*
03
1,
#50000
0,
#55000
1*
13
b11100000 +
b11100000 1
b11100000 2
b110 5
1,
#60000
0,
#65000
b111 5
0*
03
1,
#70000
0,
#75000
1*
13
b10000000 +
b10000000 1
b10000000 2
b1000 5
1,
#80000
0,
#85000
b1001 5
1,
#90000
0,
#95000
0*
03
b1010 5
1,
#100000
0,
#105000
b1011 5
1*
13
b1001000 +
b1001000 1
b1001000 2
1,
#110000
0,
#115000
0*
03
b1100 5
1,
#120000
0,
#125000
b1101 5
1*
13
b1100101 +
b1100101 1
b1100101 2
1,
#130000
0,
#135000
0*
03
b1110 5
1,
#140000
0,
#145000
b1111 5
1*
13
b1101100 +
b1101100 1
b1101100 2
1,
#150000
0,
#155000
0*
03
b10000 5
1,
#160000
0,
#165000
b10001 5
1*
13
1,
#170000
0,
#175000
0*
03
b10010 5
1,
#180000
0,
#185000
b10011 5
1*
13
b1101111 +
b1101111 1
b1101111 2
1,
#190000
0,
#195000
0*
03
b10100 5
1,
#200000
0,
#205000
b10101 5
1*
13
b101100 +
b101100 1
b101100 2
1,
#210000
0,
#215000
0*
03
b10110 5
1,
#220000
0,
#225000
b10111 5
1*
13
b100000 +
b100000 1
b100000 2
1,
#230000
0,
#235000
0*
03
b11000 5
1,
#240000
0,
#245000
b11001 5
1*
13
b1110111 +
b1110111 1
b1110111 2
1,
#250000
0,
#255000
0*
03
b11010 5
1,
#260000
0,
#265000
b11011 5
1*
13
b1101111 +
b1101111 1
b1101111 2
1,
#270000
0,
#275000
0*
03
b11100 5
1,
#280000
0,
#285000
b11101 5
1*
13
b1110010 +
b1110010 1
b1110010 2
1,
#290000
0,
#295000
0*
03
b11110 5
1,
#300000
0,
#305000
b11111 5
1*
13
b1101100 +
b1101100 1
b1101100 2
1,
#310000
0,
#315000
0*
03
b100000 5
1,
#320000
0,
#325000
b100001 5
1*
13
b1100100 +
b1100100 1
b1100100 2
1,
#330000
0,
#335000
0*
03
b100010 5
1,
#340000
0,
#345000
b100011 5
1,
#350000
0,
#355000
b100100 5
1,
#360000
0,
#365000
b100101 5
1,
#370000
0,
#375000
b100110 5
1,
#380000
0,
#385000
b100111 5
1,
#390000
0,
#395000
b101000 5
1,
